{"offset":0,"next":"https:\/\/api.spotify.com\/v1\/albums\/6MO9osXm49WjTRkjDJh3PJ\/tracks?offset=2&limit=2&locale=zh-CN,zh-Hans;q=0.9","href":"https:\/\/api.spotify.com\/v1\/albums\/6MO9osXm49WjTRkjDJh3PJ\/tracks?offset=0&limit=2&locale=zh-CN,zh-Hans;q=0.9","limit":2,"previous":null,"total":9,"items":[{"id":"24fEIDceSzRFYSGAwkOjSD","disc_number":1,"track_number":1,"uri":"spotify:track:24fEIDceSzRFYSGAwkOjSD","artists":[{"uri":"spotify:artist:7Dx7RhX0mFuXhCOUgB01uM","id":"7Dx7RhX0mFuXhCOUgB01uM","external_urls":{"spotify":"https:\/\/open.spotify.com\/artist\/7Dx7RhX0mFuXhCOUgB01uM"},"name":"林俊傑","type":"artist","href":"https:\/\/api.spotify.com\/v1\/artists\/7Dx7RhX0mFuXhCOUgB01uM"}],"href":"https:\/\/api.spotify.com\/v1\/tracks\/24fEIDceSzRFYSGAwkOjSD","is_local":false,"available_markets":["AR","AU","AT","BE","BO","BR","BG","CA","CL","CO","CR","CY","CZ","DK","DO","DE","EC","EE","SV","FI","FR","GR","GT","HN","HK","HU","IS","IE","IT","LV","LT","LU","MY","MT","MX","NL","NZ","NI","NO","PA","PY","PE","PH","PL","PT","SG","SK","ES","SE","CH","TW","TR","UY","US","GB","AD","LI","MC","ID","JP","TH","VN","RO","IL","ZA","SA","AE","BH","QA","OM","KW","EG","MA","DZ","TN","LB","JO","PS","IN","BY","KZ","MD","UA","AL","BA","HR","ME","MK","RS","SI","KR","BD","PK","LK","GH","KE","NG","TZ","UG","AG","AM","BS","BB","BZ","BT","BW","BF","CV","CW","DM","FJ","GM","GE","GD","GW","GY","HT","JM","KI","LS","LR","MW","MV","ML","MH","FM","NA","NR","NE","PW","PG","WS","SM","ST","SN","SC","SL","SB","KN","LC","VC","SR","TL","TO","TT","TV","VU","AZ","BN","BI","KH","CM","TD","KM","GQ","SZ","GA","GN","KG","LA","MO","MR","MN","NP","RW","TG","UZ","ZW","BJ","MG","MU","MZ","AO","CI","DJ","ZM","CD","CG","IQ","LY","TJ","VE","ET","XK"],"type":"track","explicit":false,"preview_url":"https:\/\/p.scdn.co\/mp3-preview\/8e8b610251194a8268c2ee3c9206ebc113b18d98?cid=da7a50c456bd4dcf9869a31ad58a524b","duration_ms":58695,"external_urls":{"spotify":"https:\/\/open.spotify.com\/track\/24fEIDceSzRFYSGAwkOjSD"},"name":"Intro"},{"id":"28r6l7zjoM3ixA1fEmtK1z","disc_number":1,"track_number":2,"uri":"spotify:track:28r6l7zjoM3ixA1fEmtK1z","artists":[{"uri":"spotify:artist:7Dx7RhX0mFuXhCOUgB01uM","id":"7Dx7RhX0mFuXhCOUgB01uM","external_urls":{"spotify":"https:\/\/open.spotify.com\/artist\/7Dx7RhX0mFuXhCOUgB01uM"},"name":"林俊傑","type":"artist","href":"https:\/\/api.spotify.com\/v1\/artists\/7Dx7RhX0mFuXhCOUgB01uM"}],"href":"https:\/\/api.spotify.com\/v1\/tracks\/28r6l7zjoM3ixA1fEmtK1z","is_local":false,"available_markets":["AR","AU","AT","BE","BO","BR","BG","CA","CL","CO","CR","CY","CZ","DK","DO","DE","EC","EE","SV","FI","FR","GR","GT","HN","HK","HU","IS","IE","IT","LV","LT","LU","MY","MT","MX","NL","NZ","NI","NO","PA","PY","PE","PH","PL","PT","SG","SK","ES","SE","CH","TW","TR","UY","US","GB","AD","LI","MC","ID","JP","TH","VN","RO","IL","ZA","SA","AE","BH","QA","OM","KW","EG","MA","DZ","TN","LB","JO","PS","IN","BY","KZ","MD","UA","AL","BA","HR","ME","MK","RS","SI","KR","BD","PK","LK","GH","KE","NG","TZ","UG","AG","AM","BS","BB","BZ","BT","BW","BF","CV","CW","DM","FJ","GM","GE","GD","GW","GY","HT","JM","KI","LS","LR","MW","MV","ML","MH","FM","NA","NR","NE","PW","PG","WS","SM","ST","SN","SC","SL","SB","KN","LC","VC","SR","TL","TO","TT","TV","VU","AZ","BN","BI","KH","CM","TD","KM","GQ","SZ","GA","GN","KG","LA","MO","MR","MN","NP","RW","TG","UZ","ZW","BJ","MG","MU","MZ","AO","CI","DJ","ZM","CD","CG","IQ","LY","TJ","VE","ET","XK"],"type":"track","explicit":false,"preview_url":"https:\/\/p.scdn.co\/mp3-preview\/7de8dbb872499638eb9df2260c46d3a39c2d69d4?cid=da7a50c456bd4dcf9869a31ad58a524b","duration_ms":272120,"external_urls":{"spotify":"https:\/\/open.spotify.com\/track\/28r6l7zjoM3ixA1fEmtK1z"},"name":"Too Bad"}]}